<svg xmlns="http://www.w3.org/2000/svg" xmlns:xlink="http://www.w3.org/1999/xlink" width="133.866" height="160.166" viewBox="0 0 133.866 160.166">
  <defs>
    <linearGradient id="linear-gradient" x1="0.5" x2="0.5" y2="1" gradientUnits="objectBoundingBox">
      <stop offset="0" stop-color="#00c6ff"/>
      <stop offset="1" stop-color="#0072ff"/>
    </linearGradient>
    <linearGradient id="linear-gradient-2" x1="0.5" x2="0.5" y2="1" gradientUnits="objectBoundingBox">
      <stop offset="0" stop-color="#0072ff"/>
      <stop offset="1" stop-color="#00c6ff"/>
    </linearGradient>
  </defs>
  <g id="Group_37" data-name="Group 37" transform="translate(0)">
    <path id="Subtraction_8" data-name="Subtraction 8" d="M66.861,160.166h0L28.284,121.587a67.242,67.242,0,0,1-20.56-23.41A66.847,66.847,0,0,1,11.431,29.51,67.129,67.129,0,0,1,40.88,5.26a66.844,66.844,0,0,1,63.476,6.171,67.13,67.13,0,0,1,24.25,29.449,66.515,66.515,0,0,1,5.26,26.054,66.978,66.978,0,0,1-28.763,54.99L66.861,160.166Zm.345-145.413A52.454,52.454,0,1,0,119.66,67.207,52.513,52.513,0,0,0,67.207,14.753Z" transform="translate(0 0)" fill="url(#linear-gradient)"/>
    <g id="Group_34" data-name="Group 34" transform="translate(15.937 39.725)" opacity="0.72">
      <path id="XMLID_11_" d="M105.2,52c.459.827.827,1.653,1.286,2.388.367.367.827.643,1.194,1.01C106.853,54.3,106.027,53.1,105.2,52Z" transform="translate(-13.807 -4.236)" fill="url(#linear-gradient-2)"/>
      <path id="XMLID_9_" d="M48.125,79.334A160.935,160.935,0,0,1,17.813,62.8C16.895,64.821,36.643,77.588,48.125,79.334Z" transform="translate(-6.791 -5.116)" fill="url(#linear-gradient-2)"/>
      <path id="XMLID_8_" d="M15.528,56.44a97.482,97.482,0,0,0,7.807,5.97,110.43,110.43,0,0,0,16.9,9.736c2.939,1.378,5.97,2.572,9,3.674s6.154,2.021,9.277,2.847,6.246,1.47,9.461,2.021c-1.653-.827-3.307-1.653-4.868-2.48-1.378-.459-2.664-.918-4.042-1.378a92.645,92.645,0,0,1-8.818-3.49c-2.939-1.286-5.695-2.664-8.542-4.133a119.8,119.8,0,0,1-15.89-10.2c-2.48-1.929-4.96-3.95-7.348-5.97C17,51.756,15.528,50.378,14.15,49l4.5-4.5c.827-.827,1.561-1.653,2.388-2.388-1.653-2.021-3.123-3.858-4.317-5.511-1.01.919-2.021,1.929-3.031,2.847-2.113,2.021-4.225,4.042-6.246,6.062-.551.551-1.194,1.1-1.745,1.745a33.973,33.973,0,0,0,2.572,2.572C10.568,52.123,12.956,54.328,15.528,56.44Z" transform="translate(-5.7 -2.982)" fill="url(#linear-gradient-2)"/>
      <path id="XMLID_7_" d="M23.956,39.022c1.929,2.664,3.95,5.236,5.97,7.808A121.976,121.976,0,0,0,43.7,60.607a94.947,94.947,0,0,0,7.716,5.879c2.664,1.837,5.419,3.582,8.175,5.144a95.3,95.3,0,0,0,8.634,4.409c-1.378-1.194-2.756-2.388-4.042-3.674-1.194-.735-2.388-1.562-3.582-2.3-2.664-1.837-5.144-3.674-7.624-5.695a91.742,91.742,0,0,1-7.164-6.246A131.512,131.512,0,0,1,33.05,44.166q-2.893-3.72-5.511-7.716c-1.1-1.653-2.113-3.307-3.123-4.96,1.837-1.01,3.674-2.113,5.511-3.215,1.01-.551,1.929-1.194,2.939-1.745-1.1-2.388-2.021-4.593-2.756-6.43-1.194.643-2.48,1.286-3.674,2.021-2.572,1.378-5.052,2.847-7.624,4.225-.735.367-1.378.827-2.113,1.194.551,1.1,1.194,2.113,1.745,3.123C20.282,33.511,22.027,36.266,23.956,39.022Z" transform="translate(-6.596 -1.637)" fill="url(#linear-gradient-2)"/>
      <path id="XMLID_6_" d="M53.514,59.985a160.111,160.111,0,0,1-18-29.485c-1.837,1.194-3.674,2.48-5.511,3.674A110.489,110.489,0,0,0,53.514,59.985Z" transform="translate(-7.68 -2.485)" fill="url(#linear-gradient-2)"/>
      <path id="XMLID_5_" d="M36.75,24.334c1.1,3.123,2.388,6.154,3.766,9.093a110.961,110.961,0,0,0,9.828,16.9,96.1,96.1,0,0,0,5.97,7.716q3.169,3.72,6.613,7.165c2.3,2.3,4.684,4.409,7.164,6.522-1.01-1.47-2.021-3.031-2.939-4.593-.919-1.01-1.929-2.113-2.847-3.215a90.86,90.86,0,0,1-5.879-7.44c-1.837-2.572-3.674-5.144-5.327-7.808a121.243,121.243,0,0,1-8.726-16.809c-1.194-2.939-2.3-5.879-3.307-8.91-.643-1.837-1.194-3.766-1.745-5.6,2.021-.551,4.133-1.1,6.154-1.653,1.1-.276,2.2-.643,3.307-.919-.459-2.572-.735-4.96-1.01-6.981-1.47.184-2.847.551-4.133.827-2.847.643-5.6,1.378-8.45,2.113-.827.184-1.561.459-2.388.643.276,1.194.551,2.3.919,3.49A87.113,87.113,0,0,0,36.75,24.334Z" transform="translate(-7.908 -0.635)" fill="url(#linear-gradient-2)"/>
      <path id="XMLID_4_" d="M81.074.827C78.135.643,75.287.551,72.348.367,69.409.276,66.561.092,63.622.092,60.775,0,57.836,0,54.988,0H52.6V3.582c0,3.307.184,6.613.459,9.92s.735,6.522,1.286,9.736A118.485,118.485,0,0,0,59.4,42.069c1.1,3.031,2.388,6.062,3.766,9a94.39,94.39,0,0,0,4.5,8.542c1.653,2.847,3.4,5.511,5.236,8.175a94.7,94.7,0,0,0,5.97,7.624c-1.837-2.664-3.49-5.419-5.144-8.175-1.561-2.756-3.031-5.6-4.5-8.45C67.847,55.939,66.561,53,65.459,50.06c-1.194-2.939-2.2-5.97-3.123-9A116.218,116.218,0,0,1,58.295,22.6c-.459-3.123-.735-6.246-.918-9.461-.092-1.929-.184-3.95-.184-5.879H63.53c2.939,0,5.787-.092,8.726-.184L80.982,6.8c1.47-.092,2.939-.092,4.317-.184.643,0,1.378-.092,2.021-.092.092,1.653.184,3.307.367,4.96.276,2.572.643,5.052,1.1,7.532A77.079,77.079,0,0,0,93.2,33.435a65.4,65.4,0,0,0,3.215,6.8c1.194,2.2,2.48,4.317,3.858,6.43a4.079,4.079,0,0,0,.735,1.01c.827,1.194,2.48,3.4,2.48,3.4l.459.643a7.267,7.267,0,0,1,.735,1.01,71.815,71.815,0,0,0,5.052,5.511c-1.47-2.021-2.847-4.042-4.225-6.154-1.286-2.113-2.48-4.225-3.674-6.338-1.1-2.2-2.2-4.317-3.123-6.613-.919-2.2-1.745-4.5-2.572-6.8a91.882,91.882,0,0,1-3.307-14.054,63.126,63.126,0,0,1-.735-7.165A63.476,63.476,0,0,1,92,3.858c0-.827.092-1.653.092-2.388-.827-.092-1.653-.092-2.388-.184-.643,0-1.286-.092-1.837-.092-.827-.092-1.653-.092-2.48-.184C83.922,1.01,82.452.919,81.074.827Z" transform="translate(-9.521)" fill="url(#linear-gradient-2)"/>
      <path id="XMLID_2_" d="M93.593,49.984c-2.847-4.225-7.807-6.613-12.124-4.96s-6.154,7.532-3.674,13.319a10.049,10.049,0,0,1-.735-1.378c-3.215-6.338-1.286-13.043,3.49-14.6,4.776-1.653,10.1,1.378,12.676,6.43A3.5,3.5,0,0,0,93.593,49.984Z" transform="translate(-11.385 -3.414)" fill="url(#linear-gradient-2)"/>
    </g>
  </g>
</svg>
